%YAML 1.1
%TAG !u! tag:unity3d.com,2011:
--- !u!114 &11400000
MonoBehaviour:
  m_ObjectHideFlags: 0
  m_CorrespondingSourceObject: {fileID: 0}
  m_PrefabInternal: {fileID: 0}
  m_GameObject: {fileID: 0}
  m_Enabled: 1
  m_EditorHideFlags: 0
  m_Script: {fileID: 11500000, guid: 7c3d755cf6cc936488afcb037b69341e, type: 3}
  m_Name: __actions_platformer_in_Jump
  m_EditorClassIdentifier: 
  changeTolerance: 0.000001
  fullPath: /actions/platformer/in/Jump
  actionSet: {fileID: 11400000, guid: df41e2ba7b9acfd488a6c78389b3364b, type: 2}
  direction: 0
