%YAML 1.1
%TAG !u! tag:unity3d.com,2011:
--- !u!114 &11400000
MonoBehaviour:
  m_ObjectHideFlags: 0
  m_CorrespondingSourceObject: {fileID: 0}
  m_PrefabInternal: {fileID: 0}
  m_GameObject: {fileID: 0}
  m_Enabled: 1
  m_EditorHideFlags: 0
  m_Script: {fileID: 11500000, guid: 7d6e96b86e24a264a8b79094a5cf3546, type: 3}
  m_Name: SteamVR_Input_ActionSet_default_In
  m_EditorClassIdentifier: 
  actionSet: {fileID: 0}
  listDirection: 0
  actions:
  - {fileID: 11400000, guid: d879c784e9f40d643919ab5e6888c4c3, type: 2}
  - {fileID: 11400000, guid: cf4f2be526954f5438abb3aeec70d2c0, type: 2}
  - {fileID: 11400000, guid: 36be476113f092b4c823019edfd04a6c, type: 2}
  - {fileID: 11400000, guid: cc72add5e54fa3b40968051dd8bc119d, type: 2}
  - {fileID: 11400000, guid: 3331cc6f3debd364a84f825bb5af9ebd, type: 2}
  - {fileID: 11400000, guid: 9b58538abe067e24b8e7c90a8a3f70f9, type: 2}
  - {fileID: 11400000, guid: 0d28fd424c1a93444b251ca92631716c, type: 2}
  - {fileID: 11400000, guid: 223a3369bd905e347b3b5184a11fddb8, type: 2}
  InteractUI: {fileID: 11400000, guid: d879c784e9f40d643919ab5e6888c4c3, type: 2}
  Teleport: {fileID: 11400000, guid: cf4f2be526954f5438abb3aeec70d2c0, type: 2}
  GrabPinch: {fileID: 11400000, guid: 36be476113f092b4c823019edfd04a6c, type: 2}
  GrabGrip: {fileID: 11400000, guid: cc72add5e54fa3b40968051dd8bc119d, type: 2}
  Pose: {fileID: 11400000, guid: 3331cc6f3debd364a84f825bb5af9ebd, type: 2}
  SkeletonLeftHand: {fileID: 11400000, guid: 9b58538abe067e24b8e7c90a8a3f70f9, type: 2}
  SkeletonRightHand: {fileID: 11400000, guid: 0d28fd424c1a93444b251ca92631716c, type: 2}
  Squeeze: {fileID: 11400000, guid: 223a3369bd905e347b3b5184a11fddb8, type: 2}
